Introduction to GAM(M)S
…
Let's use the ACCH data frame from the hands-on.

```r
acch <- read_delim("data/ACCH.txt") %>%
  mutate(
    StimSlide.RT = StimSlide.RT/1000,
    RT_log = log(StimSlide.RT),
    ACC = ifelse(StimSlide.ACC == 0, "incorrect", "correct")
  )

acch
```

```
## # A tibble: 4,796 × 13
##    Subject Group       Trial Condi…¹  item Remove StimS…² StimS…³ Struc…⁴ Number
##      <dbl> <chr>       <dbl>   <dbl> <dbl> <chr>    <dbl>   <dbl> <chr>   <chr> 
##  1     202 monolingual     1       1     1 no           1    6.21 Subject Match 
##  2     202 monolingual     1       1     2 no           1    3.89 Subject Match 
##  3     202 monolingual    15       1     3 no           0    4.37 Subject Match 
##  4     202 monolingual    26       1     4 no           1    3.70 Subject Match 
##  5     202 monolingual    15       1     5 no           1    5.63 Subject Match 
##  6     202 monolingual    33       1     6 no           1    3.78 Subject Match 
##  7     202 monolingual    23       1     7 no           1    4.68 Subject Match 
##  8     202 monolingual    26       1     8 no           1    3.78 Subject Match 
##  9     202 monolingual    28       1     9 no           1    4.21 Subject Match 
## 10     202 monolingual    24       1    10 no           1    5.42 Subject Match 
## # … with 4,786 more rows, 3 more variables: First_NP <chr>, RT_log <dbl>,
## #   ACC <chr>, and abbreviated variable names ¹​Condition, ²​StimSlide.ACC,
## #   ³​StimSlide.RT, ⁴​Structure
```
…
--

Note that if the two numeric predictors are on the same scale (isotropic), you can use `s()` instead of `te/ti()`. Coordinates are such type of predictors.

---

```r
vowels <- read_csv("data/vowels.csv")
vowels
```

```
## # A tibble: 11,565 × 12
##    speaker index    word  time_p…¹    f1    f2    f3    f0 durat…² vowel voicing
##    <chr>   <chr>    <chr>    <dbl> <dbl> <dbl> <dbl> <dbl>   <dbl> <chr> <chr>  
##  1 it01    it01-001 pugu         1  308.  797. 2280.  137.    95.2 u     voiced 
##  2 it01    it01-001 pugu         2  315.  779. 2124.  134.    95.2 u     voiced 
##  3 it01    it01-001 pugu         3  316.  786. 2314.  134.    95.2 u     voiced 
##  4 it01    it01-001 pugu         4  314.  789. 2374.  135.    95.2 u     voiced 
##  5 it01    it01-001 pugu         5  313.  737. 2307.  137.    95.2 u     voiced 
##  6 it01    it01-001 pugu         6  305.  717. 2315.  138.    95.2 u     voiced 
##  7 it01    it01-001 pugu         7  291.  713. 2318.  138.    95.2 u     voiced 
##  8 it01    it01-001 pugu         8  280.  733. 2308.  137.    95.2 u     voiced 
##  9 it01    it01-001 pugu         9  287.  784. 2329.  136.    95.2 u     voiced 
## 10 it01    it01-002 pada         1  651. 1119. 2155.  120.   139.  a     voiced 
## # … with 11,555 more rows, 1 more variable: place <chr>, and abbreviated
## #   variable names ¹​time_point, ²​duration
```
…
